// Size  4x4
// Box Moves  66
SIZ 4 4
POS 0 0
// Boxes: XPos - YPos - Size - Opening - Special(!)
BOX 3 0 - W !
BOX 0 3 + N !
BOX 0 0 - W .
BOX 3 1 - S .
BOX 0 1 - E .
BOX 1 1 - S .
BOX 1 2 + S .
BOX 3 3 + W .
BOX 0 2 + E .
BOX 2 3 + N .
// Solution: 
// 00E-10E-20S-21S-22S-23W-13N-12E-22S-23E-22W-13E-31W-21N-23W-12E-22N-13E-21E-11E-
// 01N-02N-21W-11W-01S-02E-12E-23W-20W-02N-13E-22W-12W-03E-31W-21W-30S-31S-11E-13W-
// 02E-12N-21N-20E-32N-31N-30W-20S-21S-11E-21N-22S-23W-13N-12N-01S-33N-32N-13E-23E-
// 02N-11E-03E-13E-21S-22S-
