// Size  4x4
// Box Moves  55
SIZ 4 4
POS 3 0
// Boxes: XPos - YPos - Size - Opening - Special(!)
BOX 2 3 - W !
BOX 3 1 + N !
BOX 2 2 - N .
BOX 3 0 - N .
BOX 1 3 - W .
BOX 3 3 - N .
BOX 1 2 + S .
BOX 3 0 + E .
BOX 0 1 + E .
BOX 1 0 + E .
// Solution: 
// 30W-20S-21W-11E-10W-31S-21E-11N-01S-02S-13N-12N-11W-01S-02E-12N-11E-21N-10S-22W-
// 12S-11N-20S-21S-01E-11E-21N-13W-03N-02E-12S-02N-13W-01S-20E-31W-10S-11W-21E-30W-
// 22N-23N-21N-20W-10S-11S-12S-13E-31W-21W-11S-12S-22N-21E-31S-
